{
  "project_info": {
    "project_number": "899970678806",
    "firebase_url": "https://thesispro-student.firebaseio.com",
    "project_id": "thesispro-student",
    "storage_bucket": "thesispro-student.appspot.com"
  },
  "client": [
    {
      "client_info": {
        "mobilesdk_app_id": "1:899970678806:android:45dbf5876f9c01bd87f537",
        "android_client_info": {
          "package_name": "com.example.mathpro"
        }
      },
      "oauth_client": [
        {
          "client_id": "899970678806-6h11to1ktqqpfrst2pubjes9njbgv3us.apps.googleusercontent.com",
          "client_type": 1,
          "android_info": {
            "package_name": "com.example.mathpro",
            "certificate_hash": "89d48759fbe863ac528eac92d029ae3e41d09135"
          }
        },
        {
          "client_id": "899970678806-f8ut4bvfojvha1hpvjv99pp4m5gkmda7.apps.googleusercontent.com",
          "client_type": 3
        }
      ],
      "api_key": [
        {
          "current_key": "AIzaSyA3_jRpYrj3EXK3gFi-NKHst0XoAP055UA"
        }
      ],
      "services": {
        "appinvite_service": {
          "other_platform_oauth_client": [
            {
              "client_id": "899970678806-f8ut4bvfojvha1hpvjv99pp4m5gkmda7.apps.googleusercontent.com",
              "client_type": 3
            }
          ]
        }
      }
    },
    {
      "client_info": {
        "mobilesdk_app_id": "1:899970678806:android:10bda30c6754defd87f537",
        "android_client_info": {
          "package_name": "com.example.thesispro_lecturer"
        }
      },
      "oauth_client": [
        {
          "client_id": "899970678806-lr4rmfmqdn87ujh16ellctkc252kta9i.apps.googleusercontent.com",
          "client_type": 1,
          "android_info": {
            "package_name": "com.example.thesispro_lecturer",
            "certificate_hash": "89d48759fbe863ac528eac92d029ae3e41d09135"
          }
        },
        {
          "client_id": "899970678806-f8ut4bvfojvha1hpvjv99pp4m5gkmda7.apps.googleusercontent.com",
          "client_type": 3
        }
      ],
      "api_key": [
        {
          "current_key": "AIzaSyA3_jRpYrj3EXK3gFi-NKHst0XoAP055UA"
        }
      ],
      "services": {
        "appinvite_service": {
          "other_platform_oauth_client": [
            {
              "client_id": "899970678806-f8ut4bvfojvha1hpvjv99pp4m5gkmda7.apps.googleusercontent.com",
              "client_type": 3
            }
          ]
        }
      }
    },
    {
      "client_info": {
        "mobilesdk_app_id": "1:899970678806:android:098a03c4cb355a9287f537",
        "android_client_info": {
          "package_name": "com.thesispro.student"
        }
      },
      "oauth_client": [
        {
          "client_id": "899970678806-gt2lfdaimlu4liqt89roloopkr6t71u2.apps.googleusercontent.com",
          "client_type": 1,
          "android_info": {
            "package_name": "com.thesispro.student",
            "certificate_hash": "89d48759fbe863ac528eac92d029ae3e41d09135"
          }
        },
        {
          "client_id": "899970678806-1c7cj2h157c4s4sr5t5aj2jt9f262oko.apps.googleusercontent.com",
          "client_type": 1,
          "android_info": {
            "package_name": "com.thesispro.student",
            "certificate_hash": "ab326924571e53f89d57562fe2a41244e15cee63"
          }
        },
        {
          "client_id": "899970678806-f8ut4bvfojvha1hpvjv99pp4m5gkmda7.apps.googleusercontent.com",
          "client_type": 3
        }
      ],
      "api_key": [
        {
          "current_key": "AIzaSyA3_jRpYrj3EXK3gFi-NKHst0XoAP055UA"
        }
      ],
      "services": {
        "appinvite_service": {
          "other_platform_oauth_client": [
            {
              "client_id": "899970678806-f8ut4bvfojvha1hpvjv99pp4m5gkmda7.apps.googleusercontent.com",
              "client_type": 3
            }
          ]
        }
      }
    }
  ],
  "configuration_version": "1"
}